{
    "id": "insurance",
    "language": "en-gb",
    "lexicalEntries": [
        {
            "entries": [
                {
                    "etymologies": [
                        "late Middle English (originally as ensurance in the sense ‘ensuring, assurance, a guarantee’): from Old French enseurance, from enseurer (see ensure). insurance (sense 1) dates from the mid 17th century"
                    ]
                }
            ],
            "language": "en-gb",
            "lexicalCategory": {
                "id": "noun",
                "text": "Noun"
            },
            "text": "insurance"
        }
    ],
    "type": "headword",
    "word": "insurance"
}